{
  "about": "Bone mineral density (BMD) is a measure of bone health. A BMD test looks at bone density and compares it to a healthy person of the same age and biological sex to give a measurement. Low BMD is a risk factor for osteoporosis and bone fractures. Vitamin D and calcium work together to maintain BMD, and taking dietary supplements of these may help maintain BMD in some people.",
  "category_on_the_left_side_of_plot": "High risk",
  "genes": [
    "AC000123.3",
    "AC002059.3",
    "AC004080.5",
    "AC004805.1",
    "AC005105.1",
    "AC005144.1",
    "AC005165.2",
    "AC005414.1",
    "AC005550.2",
    "AC006600.1",
    "AC007317.1",
    "AC008957.2",
    "AC009154.1",
    "AC009522.1",
    "AC009743.1",
    "AC012568.1",
    "AC013480.1",
    "AC018445.4",
    "AC019103.1",
    "AC021785.1",
    "AC022784.4",
    "AC026120.1",
    "AC026427.2",
    "AC048383.1",
    "AC055813.1",
    "AC069549.1",
    "AC074281.2",
    "AC090023.1",
    "AC090617.7",
    "AC090791.1",
    "AC092139.3",
    "AC092164.1",
    "AC093110.1",
    "AC096736.3",
    "AC099342.1",
    "AC103794.1",
    "AC110285.4",
    "AC113386.1",
    "AC126178.1",
    "AF178030.1",
    "AHNAK",
    "AK4P2",
    "AL021707.1",
    "AL024497.2",
    "AL035414.1",
    "AL049649.1",
    "AL135937.1",
    "AL136313.1",
    "AL136962.1",
    "AL137005.1",
    "AL138920.1",
    "AL158042.1",
    "AL158212.2",
    "AL161729.2",
    "AL162386.2",
    "AL162497.1",
    "AL354760.1",
    "AL356311.1",
    "AL445253.1",
    "AL445470.1",
    "AL445483.1",
    "AL589702.1",
    "AL590490.1",
    "AL591122.1",
    "AL691426.1",
    "AL844908.2",
    "AP000317.2",
    "AP001977.1",
    "AP002967.1",
    "AP003063.2",
    "AP005209.1",
    "AQP1",
    "ARHGAP26-IT1",
    "ARID1A",
    "ATAD1",
    "ATXN7L1",
    "AXIN1",
    "B4GALNT3",
    "BARX1",
    "BBOX1-AS1",
    "BMP2",
    "BMP4",
    "BMP5",
    "BNC2-AS1",
    "BTBD16",
    "CADM1",
    "CARMN",
    "CASC19",
    "CASC20",
    "CD109",
    "CD68",
    "CHCHD4P2",
    "CRADD",
    "CRTC3",
    "CSNK1G3",
    "CTBP2P8",
    "DAB2",
    "DDN",
    "DLEU7",
    "DLX5",
    "DLX6-AS1",
    "DOT1L",
    "EMP1",
    "ERG",
    "ESR1",
    "EYA1",
    "EYA4",
    "FABP3P2",
    "FAM129B",
    "FAM133B",
    "FAM210A",
    "FAM234B",
    "FBXL2",
    "FGFRL1",
    "FOSB",
    "FRZB",
    "FTO",
    "FUBP3",
    "FZD4",
    "GAPDHP54",
    "GFRAL",
    "GMDS-DT",
    "GPC6",
    "GPC6-AS2",
    "GSTM3P2",
    "HDAC5",
    "HLA-W",
    "HMGCLL1",
    "HMGN1P28",
    "HNRNPUL1",
    "HOXA11",
    "ICA1L",
    "IDUA",
    "IGFBP7",
    "IGHMBP2",
    "INPP5A",
    "INSC",
    "ITCH-AS1",
    "JAG1",
    "JAZF1",
    "JUP",
    "KCNMA1",
    "KIAA2012",
    "KIF25-AS1",
    "KLF12",
    "KLF6",
    "KREMEN1",
    "L3MBTL3",
    "LEKR1",
    "LINC00880",
    "LINC01571",
    "LINC01700",
    "LINC01877",
    "LINC01956",
    "LINC02127",
    "LINC02341",
    "LINC02487",
    "LINC02513",
    "LINC02644",
    "LNCAROD",
    "LRP4",
    "LRP5",
    "MEPE",
    "MIR1908",
    "MIR3164",
    "MIR3173",
    "MIR3183",
    "MIR4451",
    "MIR4713",
    "MIR6716",
    "MIR6870",
    "MLPH",
    "MMP14",
    "MPP7",
    "MRPL28",
    "MS4A6A",
    "MTND5P34",
    "NAA38",
    "NCAM1-AS1",
    "NDP",
    "NGEF",
    "NME8",
    "NTN1",
    "NXNP1",
    "PCNX3",
    "PDE7B",
    "PHF2",
    "PKD2L1",
    "PLEKHG4",
    "PLPPR3",
    "PLXDC2",
    "PRRX1",
    "RAD23BP2",
    "RERE-AS1",
    "RF00006",
    "RF00012",
    "RF00019",
    "RF01161",
    "RF01210",
    "RF02219",
    "RGS9",
    "RHPN2",
    "RMND1",
    "RN7SKP43",
    "RN7SL531P",
    "RN7SL547P",
    "RN7SL79P",
    "RNA5SP133",
    "RNA5SP276",
    "RNU4-23P",
    "RNU6-105P",
    "RNU6-157P",
    "RNU6-440P",
    "RNU6-537P",
    "RNU6-813P",
    "RNU7-165P",
    "RPL10AP1",
    "RPL10P1",
    "RPL12P6",
    "RPL21P75",
    "RPL29P19",
    "RPL7L1P12",
    "RPS23P4",
    "RPS7P4",
    "RREB1",
    "RSPO3",
    "SAMD12-AS1",
    "SBNO2",
    "SEM1",
    "SEMA3F-AS1",
    "SEPT9",
    "SF3A3",
    "SFRP4",
    "SLC30A10",
    "SLC4A4",
    "SLX4IP",
    "SMARCAD1",
    "SPEN",
    "SPTBN1",
    "SUPT3H",
    "SYNE1-AS1",
    "TBX15",
    "TECRP1",
    "THORLNC",
    "TMEM18",
    "TMEM92",
    "TNFRSF11A",
    "UBE3D",
    "USP31",
    "USP3-AS1",
    "WNT1",
    "WNT16",
    "WNT5B",
    "Z93930.3",
    "ZNF827"
  ],
  "how_your_result_was_calculated": "Your result is a risk based on 280 genetic variants, specifically called SNPs, found in 255 genes associated with bone mineral density. Overall, this explains about 12% of the genetic variation in bone mineral density between people, based on current scientific knowledge.",
  "other_factors": [
    {
      "content": "A balanced and healthy diet is always a good idea. Many foods and drinks are good for bone health. These include milk, yogurt, cheese, fatty fish (like salmon and tuna), leafy green vegetables, tomato products, and certain fruits (like oranges, bananas, and plantains).",
      "title": "Diet"
    },
    {
      "content": "Conservative amount of Calcium, as well as practitioner recommended dosage of vitamin D and magesium supplements can help maintain bone mineral density.",
      "title": "Supplements"
    },
    {
      "content": "Staying active -- and including weight-bearing exercise -- helps maintain bone mineral density and strong bones.",
      "title": "Lifestyle"
    },
    {
      "content": "Sometimes, genetic risk factors can cause multiple people in the same family to have a low bone mineral density or have osteoporosis. These types of risk factors, which are usually due to rare genetic variants, are not included in this test. If you have a family history of these issues, talk to your Practitioner.",
      "title": "Family History"
    }
  ],
  "other_factors_statement": "Many factors impact bone mineral density, including diet, lifestyle, other health issues, and genetics. Genetics has a moderate overall impact on bone mineral density when you consider all the other factors.",
  "references": {
    "article_links": [],
    "website_text_data": [
      {
        "accessed": "Accessed June 23, 2019.\n",
        "links": "https://medlineplus.gov/bonedensity.html",
        "title": "\"Bone Density\" from Medline Plus at National Institutes of Health"
      }
    ]
  },
  "result_statement_choice": {
    "Average risk": "Based on the genetic factors tested, you are more likely to have an average bone mineral density (BMD).",
    "High risk": "Based on the genetic factors tested, you are more likely to have a lower bone mineral density (BMD).",
    "Low risk": "Based on the genetic factors tested, you are more likely to have a higher bone mineral density (BMD)."
  },
  "science_behind_the_test": "Bone mineral density is moderately heritable - about 60% of differences observed among people has a genetic origin [1]. Our test is based on results of the genome wide association studies (GWAS) [1], which included over 140 000 individuals of European ancestry (BioBank UK). The study reports 269 variants significantly associated with the BMD in European population. Together these SNPs explain about 12% of between people variance in bone density [1].\nOur analyses use genetic data (genotypes) for all those SNPs to calculate the polygenic score.",
  "science_behind_your_result": "Your results are based on genetic studies published in peer-revieved scientific and medical articles. Sometimes, the effects of many different genetic factors are combined into one risk estimate.",
  "test_type": "Polygenic Risk Score",
  "trait": "Bone Mineral Density",
  "trait_authors": [
    "Katarzyna Tomala"
  ],
  "trait_copyright": "Intelliseq all rights reserved",
  "trait_expiry": "10.03.2021",
  "trait_explained": 0.12,
  "trait_heritability": 0.6,
  "trait_pmids": [
    "28869591"
  ],
  "trait_science": "Bone mineral density index is moderately heritable - about 60% of differences observed among people has a genetic origin. Our analysis was based on 280 SNPs associated with BMD. These genetic variants are located within 255 genes. Together, they explain about 12% of the variation in BMD between people.",
  "trait_short_description": "Bone mineral density",
  "trait_snp_heritability": null,
  "trait_test_details": "We determined your genotype at all the genomic positions, which are known to influence bone mineral density. Your polygenic risk score was calculated by summing up the effects of all the individual SNPs. The estimated effect of the genetic factors may be enhanced or alleviated by the environment, especially by the diet and lifestyle.",
  "trait_title": "BMD",
  "trait_version": "1.0",
  "what_you_can_do_choice": {
    "Average risk": [
      {
        "content": "Other factors besides genetics may impact your risk for a low bone mineral density. Consider talking to your practitioner about ordering tests to check your levels of vitamins and minerals that are important for bone health, and possible next steps that you can take.",
        "title": "Talk to Your Practitioner"
      },
      {
        "content": "A balanced and healthy diet is always a good idea. Many foods and drinks are good for bone health. These include milk, yogurt, cheese, fatty fish (like salmon and tuna), leafy green vegetables, tomato products, and certain fruits (like oranges, bananas, and plantains).",
        "title": "Diet"
      },
      {
        "content": "Different vitamins and minerals are important to maintain bone mineral density, vitamin D, and magnesium (limit calcium). These are available in a multivitamin or as separate dietary supplements.Talk to your practitioner about dosages if you want to take these, especially if you are taking other supplements or are on medications. The amounts you need also vary by biological sex and age.",
        "title": "Supplements"
      },
      {
        "content": "Weight-bearing exercise, such as climbing stairs, brisk walking, jogging, or dancing, can help keeps bone strong. At the same time, it increases flexibility and helps to maintain a healthy weight.",
        "title": "Lifestyle"
      },
      {
        "content": "Low bone mineral density can run in families, and these risk factors are not included in this test. If you have a close relative (parent, child, sibling) with low bone mineral density or bone fractures, speak to your practitioner about your family history. If you have blood tests to look at certain vitamins and minerals, information about your family history will help with understanding your blood test results.",
        "title": "Family History"
      }
    ],
    "High risk": [
      {
        "content": "Your practitioner may be able to order tests to check your levels of vitamins and minerals that are important for bone health, as well as other tests. Talk to them about this and possible next steps that you can take.",
        "title": "Talk to Your Practitioner"
      },
      {
        "content": "Many foods and drinks are good for bone health. These include milk, yogurt, cheese, fatty fish (like salmon and tuna), leafy green vegetables, tomato products, and certain fruits (like oranges, bananas, and plantains). .",
        "title": "Diet"
      },
      {
        "content": "Different vitamins and minerals are important to maintain bone mineral density, vitamin D, and magnesium (limit calcium).  These are available in a multivitamin or as separate dietary supplements.Talk to your practitioner about the dosages to take, especially if you are taking other supplements or are on medications. These amounts also vary by biological sex and age.",
        "title": "Supplements"
      },
      {
        "content": "Weight-bearing exercise, such as climbing stairs, brisk walking, jogging, or dancing, can help keeps bone strong. At the same time, it increases flexibility and helps to maintain a healthy weight.",
        "title": "Lifestyle"
      },
      {
        "content": "Low bone mineral density can run in families, and these risk factors are not included in this test. If you have a close relative (parent, child, sibling) with low bone mineral density or bone fractures, speak to your practitioner about your family history. If you have blood tests to look at certain vitamins and minerals, information about your family history will help with understanding your blood test results.",
        "title": "Family History"
      }
    ],
    "Low risk": [
      {
        "content": "Other factors besides genetics may impact your risk for a low bone mineral density. Consider talking to your practitioner about ordering tests to check your levels of vitamins and minerals that are important for bone health, and possible next steps that you can take.",
        "title": "Talk to Your Practitioner"
      },
      {
        "content": "A balanced and healthy diet is always a good idea. Many foods and drinks are good for bone health. These include milk, yogurt, cheese, fatty fish (like salmon and tuna), leafy green vegetables, tomato products, and certain fruits (like oranges, bananas, and plantains).",
        "title": "Diet"
      },
      {
        "content": "Different vitamins and minerals are important to maintain bone mineral density, vitamin D, and magnesium (limit calcium). These are available in a multivitamin or as separate dietary supplements.Talk to your practitioner about dosages if you want to take these, especially if you are taking other supplements or are on medications. The amounts you need also vary by biological sex and age.",
        "title": "Supplements"
      },
      {
        "content": "Weight-bearing exercise, such as climbing stairs, brisk walking, jogging, or dancing, can help keeps bone strong. At the same time, it increases flexibility and helps to maintain a healthy weight.",
        "title": "Lifestyle"
      }
    ]
  },
  "what_you_can_do_statement_choice": {
    "Average risk": "There are things you can do to try to prevent low bone mineral density and stay healthy. Certain tests can also check your vitamin and mineral levels that are important for bone health. Talk to your practitioner about what is right for you.",
    "High risk": "There are things you can do to try to prevent low bone mineral density and stay healthy. Certain tests can also check your vitamin and mineral levels that are important for bone health. Talk to your practitioner about what is right for you.",
    "Low risk": "There are things you can do to try to prevent low bone mineral density and stay healthy. Certain tests can also check your vitamin and mineral levels that are important for bone health. Talk to your practitioner about what is right for you."
  },
  "what_your_result_means_choice": {
    "Average risk": "Depending on your bone mineral density and other factors, you may have an average risk for osteoporosis or other health issues.",
    "High risk": "Depending on your bone mineral density and other factors, you may have a higher risk for osteoporosis or other health issues.",
    "Low risk": "Depending on your bone mineral density and other factors, you may have a lower risk for osteoporosis or other health issues."
  }
}