[
    {
        "alternateBases": [
            "<NON_REF>"
        ],
        "calls": [
            {
                "callSetId": "PC-2SBCATWI45UENF5ZJ5WCFF3FTEUL2GCZ",
                "genotype": [
                    0,
                    0
                ],
                "info": {
                    "DP": [
                        "26"
                    ],
                    "FILTER": [
                        "PASS"
                    ],
                    "GQ": [
                        "72"
                    ],
                    "MIN_DP": [
                        "25"
                    ]
                }
            }
        ],
        "end": "56707407",
        "referenceBases": "T",
        "referenceName": "chr1",
        "start": "56707406"
    },
    {
        "alternateBases": [
            "G"
        ],
        "calls": [
            {
                "callSetId": "PC-2SBCATWI45UENF5ZJ5WCFF3FTEUL2GCZ",
                "genotype": [
                    0,
                    1
                ],
                "genotypeLikelihood": [
                    -34.4,
                    -0.0,
                    -44.8
                ],
                "info": {
                    "AD": [
                        "15",
                        "13"
                    ],
                    "DP": [
                        "28"
                    ],
                    "FILTER": [
                        "PASS"
                    ],
                    "GQ": [
                        "99"
                    ],
                    "QUAL": [
                        "315.77"
                    ],
                    "VAR_TYPE": [
                        "SNV"
                    ]
                }
            }
        ],
        "end": "56720145",
        "referenceBases": "A",
        "referenceName": "chr1",
        "start": "56720144"
    },
    {
        "alternateBases": [
            "<NON_REF>"
        ],
        "calls": [
            {
                "callSetId": "PC-2SBCATWI45UENF5ZJ5WCFF3FTEUL2GCZ",
                "genotype": [
                    -1,
                    -1
                ],
                "info": {
                    "DP": [
                        "0"
                    ],
                    "FILTER": [
                        "LOWQ"
                    ],
                    "GQ": [
                        "0"
                    ],
                    "MIN_DP": [
                        "0"
                    ]
                }
            }
        ],
        "end": "97189611",
        "referenceBases": "C",
        "referenceName": "chr1",
        "start": "97189610"
    }
]